…
``` r
#fish_final%>%
 # filter(across(c(period, continent, geo_region, country, scientific_name, common_name, taxonomic_code, catch, status)), sum(is.na()))
```

4. How many countries are represented in the data?

``` r
fish_final %>%
  distinct(country)
```

```
## # A tibble: 249 × 1
##    country            
##    <fct>              
##  1 Afghanistan        
##  2 Albania            
##  3 Algeria            
##  4 American Samoa     
##  5 Andorra            
##  6 Angola             
##  7 Anguilla           
##  8 Antigua and Barbuda
##  9 Argentina          
## 10 Armenia            
## # ℹ 239 more rows
```

``` r
# 249 countries
```

5. The variables `common_name` and `taxonomic_code` both refer to species. How many unique species are represented in the data based on each of these variables? Are the numbers the same or different?

``` r
fish_final %>%
  distinct(common_name)
```

```
## # A tibble: 3,390 × 1
##    common_name            
##    <fct>                  
##  1 Freshwater fishes NEI  
##  2 Crucian carp           
##  3 Common carp            
##  4 Grass carp(=White amur)
##  5 Silver carp            
##  6 Bighead carp           
##  7 Wuchang bream          
##  8 Bleak                  
##  9 Orfe(=Ide)             
## 10 Common dace            
## # ℹ 3,380 more rows
```

``` r
fish_final %>%
  distinct(taxonomic_code)
```

```
## # A tibble: 3,722 × 1
##    taxonomic_code 
##    <fct>          
##  1 1990XXXXXXXX106
##  2 140014109002   
##  3 140014113401   
##  4 140018102601   
##  5 140018104601   
##  6 140018104602   
##  7 140018105801   
##  8 140023102602   
##  9 140023114204   
## 10 140023114205   
## # ℹ 3,712 more rows
```
…
